^C:\USERS\ADMINISTRADOR\DESKTOP\TP2-PROGGRAFICOS I\PROYECTOSFML\MAIN.CPP
/c /I"C:\USERS\ADMINISTRADOR\DESKTOP\TP2-PROGGRAFICOS I\\SFML X32\SFML-2.4.2\INCLUDE" /ZI /nologo /W3 /WX- /sdl /Od /Oy- /D _MBCS /Gm /EHsc /RTC1 /MDd /GS /fp:precise /Zc:wchar_t /Zc:forScope /Zc:inline /Fo"DEBUG\\" /Fd"DEBUG\VC140.PDB" /Gd /TP /analyze- C:\USERS\ADMINISTRADOR\DESKTOP\TP2-PROGGRAFICOS I\PROYECTOSFML\MAIN.CPP
^C:\USERS\KURONEKO\DESKTOP\TP2\TP2-PROGGRAFICOS-I\PROYECTOSFML\MAIN.CPP
/c /I"C:\USERS\KURONEKO\DESKTOP\TP2\TP2-PROGGRAFICOS-I\\SFML X32\SFML-2.4.2\INCLUDE" /ZI /nologo /W3 /WX- /sdl /Od /Oy- /D _MBCS /Gm /EHsc /RTC1 /MDd /GS /fp:precise /Zc:wchar_t /Zc:forScope /Zc:inline /Fo"DEBUG\\" /Fd"DEBUG\VC140.PDB" /Gd /TP /analyze- C:\USERS\KURONEKO\DESKTOP\TP2\TP2-PROGGRAFICOS-I\PROYECTOSFML\MAIN.CPP
