^C:\USERS\KURONEKO\DESKTOP\TP2\TP2-PROGGRAFICOS-I\PROYECTOSFML\MAIN.CPP
C:\USERS\KURONEKO\DESKTOP\TP2\TP2-PROGGRAFICOS-I\PROYECTOSFML\X64\RELEASE\VC140.PDB
C:\USERS\KURONEKO\DESKTOP\TP2\TP2-PROGGRAFICOS-I\PROYECTOSFML\X64\RELEASE\MAIN.OBJ
