﻿  Main.cpp
Main.cpp(20): warning C4244: 'inicializando': conversión de 'double' a 'int'; posible pérdida de datos
Main.cpp(21): warning C4244: 'inicializando': conversión de 'double' a 'int'; posible pérdida de datos
Main.cpp(78): warning C4244: 'argumento': conversión de 'int' a 'float'; posible pérdida de datos
  Generando código
  60 of 93 functions (64.5%) were compiled, the rest were copied from previous compilation.
    27 functions were new in current compilation
    1 functions had inline decision re-evaluated but remain unchanged
  Generación de código finalizada
  ProyectoSFML.vcxproj -> C:\Users\Kuroneko\Desktop\Tp2\tp2-proggraficos-i\x64\Release\ProyectoSFML.exe
  ProyectoSFML.vcxproj -> C:\Users\Kuroneko\Desktop\Tp2\tp2-proggraficos-i\x64\Release\ProyectoSFML.pdb (Full PDB)
          1 archivo(s) copiado(s).
          1 archivo(s) copiado(s).
          1 archivo(s) copiado(s).
